{
    "current_page": 2,
    "data": [
        {
            "id": 3,
            "price": 800,
            "user_id": 1,
            "category_id": 4,
            "title": "Third",
            "author": "Vrubel",
            "slug": "third",
            "tags": "Third, Vrubel, Some, Tags",
            "description": "Lorem ipsum",
            "is_ai_safe": false,
            "visibility_level": 0,
            "width": 100,
            "height": 200,
            "weight": 0.4,
            "status": "Pending",
            "deleted_at": null,
            "created_at": "2016-10-22T11:05:00.000000Z",
            "updated_at": "2016-10-20T11:05:00.000000Z"
        },
        {
            "id": 4,
            "price": 700,
            "user_id": 2,
            "category_id": 4,
            "title": "Fourth",
            "author": "Aivazovkiy",
            "slug": "fourth",
            "tags": "Fourth, Aivazovkiy, Some, Tags",
            "description": "Lorem ipsum",
            "is_ai_safe": false,
            "visibility_level": 0,
            "width": 100,
            "height": 200,
            "weight": 0.4,
            "status": "Approved",
            "deleted_at": null,
            "created_at": "2016-10-23T11:05:00.000000Z",
            "updated_at": "2016-10-20T11:05:00.000000Z"
        }
    ],
    "first_page_url": "http:\/\/localhost\/products?page=1",
    "from": 3,
    "last_page": 7,
    "last_page_url": "http:\/\/localhost\/products?page=7",
    "links": [
        {
            "url": "http:\/\/localhost\/products?page=1",
            "label": "&laquo; Previous",
            "active": false
        },
        {
            "url": "http:\/\/localhost\/products?page=1",
            "label": "1",
            "active": false
        },
        {
            "url": "http:\/\/localhost\/products?page=2",
            "label": "2",
            "active": true
        },
        {
            "url": "http:\/\/localhost\/products?page=3",
            "label": "3",
            "active": false
        },
        {
            "url": "http:\/\/localhost\/products?page=4",
            "label": "4",
            "active": false
        },
        {
            "url": "http:\/\/localhost\/products?page=5",
            "label": "5",
            "active": false
        },
        {
            "url": "http:\/\/localhost\/products?page=6",
            "label": "6",
            "active": false
        },
        {
            "url": "http:\/\/localhost\/products?page=7",
            "label": "7",
            "active": false
        },
        {
            "url": "http:\/\/localhost\/products?page=3",
            "label": "Next &raquo;",
            "active": false
        }
    ],
    "next_page_url": "http:\/\/localhost\/products?page=3",
    "path": "http:\/\/localhost\/products",
    "per_page": 2,
    "prev_page_url": "http:\/\/localhost\/products?page=1",
    "to": 4,
    "total": 14
}