{
    "current_page": 1,
    "data": [
        {
            "id": 14,
            "price": 0,
            "user_id": 2,
            "category_id": 3,
            "title": "Fourteenth",
            "author": "Picasso",
            "slug": "fourteenth",
            "tags": "Fourteenth, Picasso, Some, Tags",
            "description": "Lorem ipsum",
            "is_ai_safe": false,
            "visibility_level": 3,
            "width": 100,
            "height": 200,
            "weight": 0.4,
            "status": "Approved",
            "deleted_at": null,
            "created_at": "2016-11-01T11:05:00.000000Z",
            "updated_at": "2016-10-20T11:05:00.000000Z"
        },
        {
            "id": 13,
            "price": 0,
            "user_id": 2,
            "category_id": 3,
            "title": "Thirteenth",
            "author": "Picasso",
            "slug": "thirteenth",
            "tags": "Thirteenth, Picasso, Some, Tags",
            "description": "Lorem ipsum",
            "is_ai_safe": false,
            "visibility_level": 2,
            "width": 100,
            "height": 200,
            "weight": 0.4,
            "status": "Approved",
            "deleted_at": null,
            "created_at": "2016-10-31T11:05:00.000000Z",
            "updated_at": "2016-10-20T11:05:00.000000Z"
        },
        {
            "id": 11,
            "price": 0,
            "user_id": 1,
            "category_id": 3,
            "title": "Eleventh",
            "author": "Picasso",
            "slug": "eleventh",
            "tags": "Eleventh, Picasso, Some, Tags",
            "description": "Lorem ipsum",
            "is_ai_safe": false,
            "visibility_level": 0,
            "width": 100,
            "height": 200,
            "weight": 0.4,
            "status": "Rejected",
            "deleted_at": null,
            "created_at": "2016-10-30T11:05:00.000000Z",
            "updated_at": "2016-10-20T11:05:00.000000Z"
        },
        {
            "id": 12,
            "price": 0,
            "user_id": 2,
            "category_id": 3,
            "title": "Twelfth",
            "author": "Picasso",
            "slug": "twelfth",
            "tags": "Twelfth, Picasso, Some, Tags",
            "description": "Lorem ipsum",
            "is_ai_safe": false,
            "visibility_level": 1,
            "width": 100,
            "height": 200,
            "weight": 0.4,
            "status": "Approved",
            "deleted_at": null,
            "created_at": "2016-10-30T11:05:00.000000Z",
            "updated_at": "2016-10-20T11:05:00.000000Z"
        },
        {
            "id": 10,
            "price": 100,
            "user_id": 2,
            "category_id": 1,
            "title": "Tenth",
            "author": "Vasnetsov",
            "slug": "tenth",
            "tags": "Tenth, Vasnetsov, Some, Tags",
            "description": "Lorem ipsum",
            "is_ai_safe": true,
            "visibility_level": 0,
            "width": 100,
            "height": 200,
            "weight": 0.4,
            "status": "Approved",
            "deleted_at": null,
            "created_at": "2016-10-29T11:05:00.000000Z",
            "updated_at": "2016-10-20T11:05:00.000000Z"
        },
        {
            "id": 9,
            "price": 200,
            "user_id": 1,
            "category_id": 4,
            "title": "Ninth",
            "author": "Aivazovkiy",
            "slug": "ninth",
            "tags": "Ninth, Aivazovkiy, Some, Tags",
            "description": "Lorem ipsum",
            "is_ai_safe": true,
            "visibility_level": 0,
            "width": 100,
            "height": 200,
            "weight": 0.4,
            "status": "Pending",
            "deleted_at": null,
            "created_at": "2016-10-28T11:05:00.000000Z",
            "updated_at": "2016-10-20T11:05:00.000000Z"
        },
        {
            "id": 8,
            "price": 300,
            "user_id": 2,
            "category_id": 4,
            "title": "Eighth",
            "author": "Vrubel",
            "slug": "eighth",
            "tags": "Eighth, Vrubel, Some, Tags",
            "description": "Lorem ipsum",
            "is_ai_safe": false,
            "visibility_level": 0,
            "width": 100,
            "height": 200,
            "weight": 0.4,
            "status": "Rejected",
            "deleted_at": null,
            "created_at": "2016-10-27T11:05:00.000000Z",
            "updated_at": "2016-10-20T11:05:00.000000Z"
        },
        {
            "id": 7,
            "price": 400,
            "user_id": 1,
            "category_id": 1,
            "title": "Seventh",
            "author": "Shishkin",
            "slug": "seventh",
            "tags": "Seventh, Shishkin, Some, Tags",
            "description": "Lorem ipsum",
            "is_ai_safe": false,
            "visibility_level": 0,
            "width": 100,
            "height": 200,
            "weight": 0.4,
            "status": "Approved",
            "deleted_at": null,
            "created_at": "2016-10-26T11:05:00.000000Z",
            "updated_at": "2016-10-20T11:05:00.000000Z"
        },
        {
            "id": 6,
            "price": 500,
            "user_id": 2,
            "category_id": 3,
            "title": "Sixth",
            "author": "Picasso",
            "slug": "sixth",
            "tags": "Sixth, Picasso, Some, Tags",
            "description": "Lorem ipsum",
            "is_ai_safe": true,
            "visibility_level": 0,
            "width": 100,
            "height": 200,
            "weight": 0.4,
            "status": "Pending",
            "deleted_at": null,
            "created_at": "2016-10-25T11:05:00.000000Z",
            "updated_at": "2016-10-20T11:05:00.000000Z"
        },
        {
            "id": 5,
            "price": 600,
            "user_id": 1,
            "category_id": 1,
            "title": "Fifth",
            "author": "Vasnetsov",
            "slug": "fifth",
            "tags": "Fifth, Vasnetsov, Some, Tags",
            "description": "Lorem ipsum",
            "is_ai_safe": true,
            "visibility_level": 0,
            "width": 100,
            "height": 200,
            "weight": 0.4,
            "status": "Rejected",
            "deleted_at": null,
            "created_at": "2016-10-24T11:05:00.000000Z",
            "updated_at": "2016-10-20T11:05:00.000000Z"
        }
    ],
    "first_page_url": "http:\/\/localhost\/products?page=1",
    "from": 1,
    "last_page": 2,
    "last_page_url": "http:\/\/localhost\/products?page=2",
    "links": [
        {
            "url": null,
            "label": "&laquo; Previous",
            "active": false
        },
        {
            "url": "http:\/\/localhost\/products?page=1",
            "label": "1",
            "active": true
        },
        {
            "url": "http:\/\/localhost\/products?page=2",
            "label": "2",
            "active": false
        },
        {
            "url": "http:\/\/localhost\/products?page=2",
            "label": "Next &raquo;",
            "active": false
        }
    ],
    "next_page_url": "http:\/\/localhost\/products?page=2",
    "path": "http:\/\/localhost\/products",
    "per_page": 10,
    "prev_page_url": null,
    "to": 10,
    "total": 14
}